Generate pseudorandom dataframes with specific parameters — generate_df • automaton
…
#> # A tibble: 10 × 4
#>    row_id id    grp   values
#>     <int> <chr> <chr>  <dbl>
#>  1      1 H03   grp-1   9.32
#>  2      2 G08   grp-1  10.5 
#>  3      3 N08   grp-1   9.42
#>  4      4 D02   grp-1  10.7 
#>  5      5 I05   grp-1  10.8 
#>  6      6 Q10   grp-1  10.2 
#>  7      7 Y08   grp-1   9.51
#>  8      8 R05   grp-1  10.1 
#>  9      9 P05   grp-1  11.2 
#> 10     10 Z01   grp-1   8.83
generate_df(n = 100L, n_grps = 5L, with_seed = NULL, mean = seq(10, 50, length.out = 5))
#> # A tibble: 500 × 4
#>    row_id id    grp   values
#>     <int> <chr> <chr>  <dbl>
#>  1      1 U008  grp-1  10.5 
#>  2      2 D003  grp-1  10.4 
#>  3      3 F074  grp-1  10.2 
#>  4      4 U006  grp-1   8.22
#>  5      5 C010  grp-1  11.2 
#>  6      6 I021  grp-1   6.98
#>  7      7 T045  grp-1  10.4 
#>  8      8 B052  grp-1   9.69
#>  9      9 T085  grp-1   8.76
#> 10     10 U028  grp-1   9.39
#> # ℹ 490 more rows
…
