Generate pseudorandom dataframes with specific parameters — generate_df • automaton
…
#> # A tibble: 10 × 4
#>    row_id id    grp   values
#>     <int> <chr> <chr>  <dbl>
#>  1      1 Q10   grp-1   7.53
#>  2      2 Z08   grp-1  11.3 
#>  3      3 Q03   grp-1  10.2 
#>  4      4 X09   grp-1  11.1 
#>  5      5 R04   grp-1   9.65
#>  6      6 F07   grp-1   8.97
#>  7      7 J05   grp-1  10.1 
#>  8      8 Z05   grp-1  10.1 
#>  9      9 E01   grp-1  11.1 
#> 10     10 Y07   grp-1   9.92
generate_df(n = 100L, n_grps = 5L, with_seed = NULL, mean = seq(10, 50, length.out = 5))
#> # A tibble: 500 × 4
#>    row_id id    grp   values
#>     <int> <chr> <chr>  <dbl>
#>  1      1 Z073  grp-1  10.5 
#>  2      2 G049  grp-1   9.95
#>  3      3 X093  grp-1  10.1 
#>  4      4 F074  grp-1   9.27
#>  5      5 O008  grp-1  10.0 
#>  6      6 D023  grp-1  10.9 
#>  7      7 U082  grp-1   9.94
#>  8      8 Y082  grp-1  10.4 
#>  9      9 L055  grp-1   9.55
#> 10     10 U095  grp-1   9.31
#> # … with 490 more rows
…
